02_sequential_basics/dump.vcd
$date
	Sun Jan 26 14:32:20 2025
$end
$version
	Icarus Verilog
$end
$timescale
	1s
$end
$scope module testbench $end
$var wire 1 ! double_overflow $end
$var wire 1 " double_b $end
$var reg 1 # a $end
$var reg 1 $ clk $end
$var reg 1 % expected_overflow $end
$var reg 1 & rst $end
$var integer 32 ' n_double_tokens [31:0] $end
$var integer 32 ( n_orig_tokens [31:0] $end
$var reg 1 ) was_reset $end
$scope module i_double_tokens $end
$var wire 1 # a $end
$var wire 1 $ clk $end
$var wire 1 & rst $end
$var wire 1 ! overflow $end
$var wire 1 " b $end
$var reg 8 * count [7:0] $end
$var reg 1 + state $end
$upscope $end
$upscope $end
$enddefinitions $end
$comment Show the parameter values. $end
$dumpall
$end
#0
$dumpvars
x+
bx *
0)
b0 (
b0 '
x&
1%
0$
x#
x"
x!
$end
#500
1$
#1000
0$
#1500
1&
1$
#2000
0$
#2500
0!
0+
b0 *
1)
1$
#3000
0$
#3500
0"
0#
0&
1$
#4000
0$
#4500
1"
1#
1$
#5000
0$
#5500
b1 '
b1 (
b1 *
1$
#6000
0$
#6500
b10 *
b10 '
b10 (
1$
#7000
0$
#7500
0#
b11 '
b11 (
b11 *
1$
#8000
0$
#8500
b10 *
b100 '
1$
#9000
0$
#9500
1#
b101 '
b1 *
1$
#10000
0$
#10500
b10 *
b110 '
b100 (
1$
#11000
0$
#11500
0#
b111 '
b101 (
b11 *
1$
#12000
0$
#12500
b10 *
b1000 '
1$
#13000
0$
#13500
b1001 '
b1 *
1$
#14000
0$
#14500
0"
b0 *
b1010 '
1$
#15000
0$
#15500
1$
#16000
0$
#16500
1$
#17000
0$
#17500
1$
#18000
0$
#18500
1$
#19000
0$
#19500
1$
#20000
0$
#20500
1$
#21000
0$
#21500
1$
#22000
0$
#22500
1"
1#
1$
#23000
0$
#23500
b1011 '
b110 (
b1 *
1$
#24000
0$
#24500
b10 *
b1100 '
b111 (
0#
1$
#25000
0$
#25500
b1101 '
b1 *
1$
#26000
0$
#26500
0"
b0 *
b1110 '
1$
#27000
0$
#27500
1$
#28000
0$
#28500
1$
#29000
0$
#29500
1$
#30000
0$
#30500
1$
#31000
0$
#31500
1"
1#
1$
#32000
0$
#32500
b1 *
b1111 '
b1000 (
1$
#33000
0$
#33500
b10000 '
b1001 (
b10 *
1$
#34000
0$
#34500
b11 *
b10001 '
b1010 (
0#
1$
#35000
0$
#35500
1#
b10010 '
b10 *
1$
#36000
0$
#36500
b11 *
b10011 '
b1011 (
0#
1$
#37000
0$
#37500
b10100 '
b10 *
1$
#38000
0$
#38500
b1 *
b10101 '
1$
#39000
0$
#39500
1#
b10110 '
b0 *
1$
#40000
0$
#40500
b1 *
b10111 '
b1100 (
1$
#41000
0$
#41500
b11000 '
b1101 (
b10 *
1$
#42000
0$
#42500
b11 *
b11001 '
b1110 (
1$
#43000
0$
#43500
0#
b11010 '
b1111 (
b100 *
1$
#44000
0$
#44500
b11 *
b11011 '
1$
#45000
0$
#45500
1#
b11100 '
b10 *
1$
#46000
0$
#46500
b11 *
b11101 '
b10000 (
0#
1$
#47000
0$
#47500
b11110 '
b10 *
1$
#48000
0$
#48500
b1 *
b11111 '
1$
#49000
0$
#49500
0"
b100000 '
b0 *
1$
#50000
0$
#50500
1$
#51000
0$
#51500
1$
#52000
0$
#52500
1"
1#
1$
#53000
0$
#53500
0#
b100001 '
b10001 (
b1 *
1$
#54000
0$
#54500
0"
b0 *
b100010 '
1$
#55000
0$
#55500
1$
#56000
0$
#56500
1$
#57000
0$
#57500
1$
#58000
0$
#58500
1"
1#
1$
#59000
0$
#59500
0#
b100011 '
b10010 (
b1 *
1$
#60000
0$
#60500
0"
b0 *
b100100 '
1$
#61000
0$
#61500
1$
#62000
0$
#62500
1$
#63000
0$
#63500
1$
#64000
0$
#64500
1$
#65000
0$
#65500
1"
1#
1$
#66000
0$
#66500
b1 *
b100101 '
b10011 (
1$
#67000
0$
#67500
0#
b100110 '
b10100 (
b10 *
1$
#68000
0$
#68500
b1 *
b100111 '
1$
#69000
0$
#69500
1#
b101000 '
b0 *
1$
#70000
0$
#70500
b1 *
b101001 '
b10101 (
0#
1$
#71000
0$
#71500
1#
b101010 '
b0 *
1$
#72000
0$
#72500
b1 *
b101011 '
b10110 (
0#
1$
#73000
0$
#73500
0"
b101100 '
b0 *
1$
#74000
0$
#74500
1$
#75000
0$
#75500
1$
#76000
0$
#76500
1$
#77000
0$
#77500
1$
#78000
0$
#78500
1$
#79000
0$
#79500
1$
#80000
0$
#80500
1$
#81000
0$
#81500
1$
#82000
0$
#82500
1"
1#
1$
#83000
0$
#83500
b101101 '
b10111 (
b1 *
1$
#84000
0$
#84500
b10 *
b101110 '
b11000 (
0#
1$
#85000
0$
#85500
1#
b101111 '
b1 *
1$
#86000
0$
#86500
b10 *
b110000 '
b11001 (
0#
1$
#87000
0$
#87500
b110001 '
b1 *
1$
#88000
0$
#88500
b0 *
b110010 '
1#
1$
#89000
0$
#89500
0#
b110011 '
b11010 (
b1 *
1$
#90000
0$
#90500
0"
b0 *
b110100 '
1$
#91000
0$
#91500
1$
#92000
0$
#92500
1$
#93000
0$
#93500
1"
1#
1$
#94000
0$
#94500
b1 *
b110101 '
b11011 (
0#
1$
#95000
0$
#95500
0"
b110110 '
b0 *
1$
#96000
0$
#96500
1"
1#
1$
#97000
0$
#97500
0#
b110111 '
b11100 (
b1 *
1$
#98000
0$
#98500
0"
b0 *
b111000 '
1$
#99000
0$
#99500
1$
#100000
0$
#100500
1$
#101000
0$
#101500
1$
#102000
0$
#102500
1"
1#
1$
#103000
0$
#103500
0#
b111001 '
b11101 (
b1 *
1$
#104000
0$
#104500
0"
b0 *
b111010 '
1$
